{
	"info": {
		"_postman_id": "06717109-a577-42bd-891e-39fc0bfc027e",
		"name": "live_chat_api",
		"schema": "https://schema.getpostman.com/json/collection/v2.1.0/collection.json",
		"_exporter_id": "1700215"
	},
	"item": [
		{
			"name": "delete message",
			"request": {
				"auth": {
					"type": "bearer",
					"bearer": [
						{
							"key": "token",
							"value": "Bearer eyJhbGciOiJIUzI1NiIsInR5cCI6IkpXVCJ9.eyJpZCI6IjY2MzBhMGU1ZTNlMTE2MDIwMTIzNzA3NiIsImlhdCI6MTcxNDUwMDk5OH0.yb3qmk-DCGuzCOcyJz0DPKDSEeN7baC57titI5a02Q8",
							"type": "string"
						}
					]
				},
				"method": "DELETE",
				"header": [],
				"url": {
					"raw": "http://localhost:3001/message/663130addd0a59a39ad320e7",
					"protocol": "http",
					"host": [
						"localhost"
					],
					"port": "3001",
					"path": [
						"message",
						"663130addd0a59a39ad320e7"
					]
				}
			},
			"response": []
		},
		{
			"name": "get all message",
			"request": {
				"auth": {
					"type": "bearer",
					"bearer": [
						{
							"key": "token",
							"value": "Bearer eyJhbGciOiJIUzI1NiIsInR5cCI6IkpXVCJ9.eyJpZCI6IjY2MzBhMGU1ZTNlMTE2MDIwMTIzNzA3NiIsImlhdCI6MTcxNDU0OTg5MX0.uw9pS8ffUF2-nei9dRKLq7sryLvtBDEAuiyytjHxK7Y",
							"type": "string"
						}
					]
				},
				"method": "GET",
				"header": [],
				"url": {
					"raw": "http://localhost:3001/message",
					"protocol": "http",
					"host": [
						"localhost"
					],
					"port": "3001",
					"path": [
						"message"
					]
				}
			},
			"response": []
		},
		{
			"name": "login",
			"request": {
				"auth": {
					"type": "bearer",
					"bearer": [
						{
							"key": "token",
							"value": "Bearer eyJhbGciOiJIUzI1NiIsInR5cCI6IkpXVCJ9.eyJpZCI6IjY2MzBhMGU1ZTNlMTE2MDIwMTIzNzA3NyIsImlhdCI6MTcxNDQ5MTg5OH0.zfeMynh3lbxTkWKLPvyKF_X8ncr7Uw56H-oSN7jTVIk",
							"type": "string"
						}
					]
				},
				"method": "POST",
				"header": [],
				"body": {
					"mode": "raw",
					"raw": "{\n    \"username\": \"username1\",\n    \"password\": \"123456\"\n}",
					"options": {
						"raw": {
							"language": "json"
						}
					}
				},
				"url": {
					"raw": "http://localhost:3001/auth",
					"protocol": "http",
					"host": [
						"localhost"
					],
					"port": "3001",
					"path": [
						"auth"
					]
				}
			},
			"response": []
		}
	]
}